Source/VIP_Block_name/sim/random_test.log
Compiling in /home/trushali/Training/SV/testbench/aes_ref
# Aldec, Inc. Riviera-PRO version 2025.10.126.10025 built for Linux64 on December 12, 2025.
# HDL, SystemC, and Assertions simulator, debugger, and design environment.
# (c) 1999-2025 Aldec, Inc. All rights reserved.
# 30
# ALIB: Library "work" attached.
# work = /home/trushali/Training/SV/testbench/aes_ref/work/work.lib
# AMAP: Adding library mapping "work" to "/home/trushali/Training/SV/testbench/aes_ref/work/work.lib".
# ALOG: Unit top modules: testbench.
# ALOG: Compile success 0 Errors 0 Warnings  Analysis time: 0[s].
# ALOG: done
Simulating in /home/trushali/Training/SV/testbench/aes_ref
# Aldec, Inc. Riviera-PRO version 2025.10.126.10025 built for Linux64 on December 12, 2025.
# HDL, SystemC, and Assertions simulator, debugger, and design environment.
# (c) 1999-2025 Aldec, Inc. All rights reserved.
# 30
# ELBREAD: Elaboration process.
# ELBREAD: Elaboration time 0.0 [s].
# KERNEL: Main thread initiated.
# KERNEL: Kernel process initialization phase.
# ELAB2: Elaboration final pass...
# KERNEL: PLI/VHPI kernel's engine initialization done.
# PLI: Loading library '/home/trushali/Aldec/Riviera-PRO-2025.10-x64/bin/libsystf.so'
# ELAB2: Create instances ...
# KERNEL: Time resolution set to 1ps.
# ELAB2: Create instances complete.
# SLP: Started
# SLP: Elaboration phase ...
# SLP: Elaboration phase ... done : 0.0 [s]
# SLP: Generation phase ...
# SLP: Generation phase ... done : 0.1 [s]
# SLP: Finished : 0.1 [s]
# SLP: 0 primitives and 75 (98.68%) other processes in SLP
# SLP: 929 (60.13%) signals in SLP and 67 (4.34%) interface signals
# ELAB2: Elaboration final pass complete - time: 0.1 [s].
# KERNEL: SLP loading done - time: 0.0 [s].
# KERNEL: Warning: You are using the Riviera-PRO EDU Edition. The performance of simulation is reduced.
# KERNEL: Warning: Contact Aldec for available upgrade options - sales@aldec.com.
# KERNEL: SLP simulation initialization done - time: 0.0 [s].
# KERNEL: Kernel process initialization done.
# Allocation: Simulator allocated 5714 kB (elbread=468 elab2=5182 kernel=62 sdf=0)
# KERNEL: ASDB file was created in location /home/trushali/Training/SV/testbench/aes_ref/dataset.asdb
# KERNEL: RESET CALLED 0
Scope testbench is already registered
Scope port_pkg is already registered
# KERNEL: RESET END 50
# KERNEL: Info: random.sv (13): NUM = 5
# KERNEL: ---------------------------
# KERNEL: [GEN | 50] : VALID: 1 PT: 75ea46ef432cf2abf150ec83561a1af3 KEY: e052502090a62bba92d93e79bc9a9844eb3317f4d444bf95faaed9e153dec3bb DONE: 0 CT: 00000000000000000000000000000000
# KERNEL: ---------------------------
# KERNEL: [DRI | 50] : VALID: 1 PT: 75ea46ef432cf2abf150ec83561a1af3 KEY: e052502090a62bba92d93e79bc9a9844eb3317f4d444bf95faaed9e153dec3bb DONE: 0 CT: 00000000000000000000000000000000
# KERNEL: ---------------------------
# KERNEL: [GEN | 70] : VALID: 0 PT: 75ea46ef432cf2abf150ec83561a1af3 KEY: e052502090a62bba92d93e79bc9a9844eb3317f4d444bf95faaed9e153dec3bb DONE: 0 CT: 00000000000000000000000000000000
# KERNEL: ---------------------------
# KERNEL: [DRI | 70] : VALID: 0 PT: 75ea46ef432cf2abf150ec83561a1af3 KEY: e052502090a62bba92d93e79bc9a9844eb3317f4d444bf95faaed9e153dec3bb DONE: 0 CT: 00000000000000000000000000000000
# KERNEL: ---------------------------
# KERNEL: [GEN | 1190] : VALID: 1 PT: a7ebfe7f52e05eb4545923b863fb67d9 KEY: 32d005fa565da3177d5acc9a4a039cfb5cb9114d21393f93c0480d65e920c978 DONE: 0 CT: 00000000000000000000000000000000
# KERNEL: ---------------------------
# KERNEL: [DRI | 1190] : VALID: 1 PT: a7ebfe7f52e05eb4545923b863fb67d9 KEY: 32d005fa565da3177d5acc9a4a039cfb5cb9114d21393f93c0480d65e920c978 DONE: 0 CT: 00000000000000000000000000000000
# KERNEL: ---------------------------
# KERNEL: [MON | 1190] : VALID: 0 PT: 75ea46ef432cf2abf150ec83561a1af3 KEY: e052502090a62bba92d93e79bc9a9844eb3317f4d444bf95faaed9e153dec3bb DONE: 1 CT: ec17e740fb4cac2300e392b4338a0b36
# KERNEL: #############PASS#############
# KERNEL: ---------------------------
# KERNEL: [SCO | 1190] : VALID: 0 PT: 75ea46ef432cf2abf150ec83561a1af3 KEY: e052502090a62bba92d93e79bc9a9844eb3317f4d444bf95faaed9e153dec3bb DONE: 1 CT: ec17e740fb4cac2300e392b4338a0b36
# KERNEL: ---------------------------
# KERNEL: [GEN | 1210] : VALID: 0 PT: a7ebfe7f52e05eb4545923b863fb67d9 KEY: 32d005fa565da3177d5acc9a4a039cfb5cb9114d21393f93c0480d65e920c978 DONE: 0 CT: 00000000000000000000000000000000
# KERNEL: ---------------------------
# KERNEL: [DRI | 1210] : VALID: 0 PT: a7ebfe7f52e05eb4545923b863fb67d9 KEY: 32d005fa565da3177d5acc9a4a039cfb5cb9114d21393f93c0480d65e920c978 DONE: 0 CT: 00000000000000000000000000000000
# KERNEL: ---------------------------
# KERNEL: [GEN | 2330] : VALID: 1 PT: 6fc1951c2410422b8cb59407cdf1bac9 KEY: f7333e038f747e9fafe58860518658123fca1c9a77d3a052b3eabed824b5b2cb DONE: 0 CT: 00000000000000000000000000000000
# KERNEL: ---------------------------
# KERNEL: [DRI | 2330] : VALID: 1 PT: 6fc1951c2410422b8cb59407cdf1bac9 KEY: f7333e038f747e9fafe58860518658123fca1c9a77d3a052b3eabed824b5b2cb DONE: 0 CT: 00000000000000000000000000000000
# KERNEL: ---------------------------
# KERNEL: [MON | 2330] : VALID: 0 PT: a7ebfe7f52e05eb4545923b863fb67d9 KEY: 32d005fa565da3177d5acc9a4a039cfb5cb9114d21393f93c0480d65e920c978 DONE: 1 CT: 616fcf4a8fda19dcef6573c2c2bd479e
# KERNEL: #############PASS#############
# KERNEL: ---------------------------
# KERNEL: [SCO | 2330] : VALID: 0 PT: a7ebfe7f52e05eb4545923b863fb67d9 KEY: 32d005fa565da3177d5acc9a4a039cfb5cb9114d21393f93c0480d65e920c978 DONE: 1 CT: 616fcf4a8fda19dcef6573c2c2bd479e
# KERNEL: ---------------------------
# KERNEL: [GEN | 2350] : VALID: 0 PT: 6fc1951c2410422b8cb59407cdf1bac9 KEY: f7333e038f747e9fafe58860518658123fca1c9a77d3a052b3eabed824b5b2cb DONE: 0 CT: 00000000000000000000000000000000
# KERNEL: ---------------------------
# KERNEL: [DRI | 2350] : VALID: 0 PT: 6fc1951c2410422b8cb59407cdf1bac9 KEY: f7333e038f747e9fafe58860518658123fca1c9a77d3a052b3eabed824b5b2cb DONE: 0 CT: 00000000000000000000000000000000
# KERNEL: ---------------------------
# KERNEL: [GEN | 3470] : VALID: 1 PT: 974ad732713e4aa64ffaec4b790399dd KEY: b904ee4767b9d5da77442bcfe7fcb352de2d8b03651c6ed13b847ce282bc57c6 DONE: 0 CT: 00000000000000000000000000000000
# KERNEL: ---------------------------
# KERNEL: [DRI | 3470] : VALID: 1 PT: 974ad732713e4aa64ffaec4b790399dd KEY: b904ee4767b9d5da77442bcfe7fcb352de2d8b03651c6ed13b847ce282bc57c6 DONE: 0 CT: 00000000000000000000000000000000
# KERNEL: ---------------------------
# KERNEL: [MON | 3470] : VALID: 0 PT: 6fc1951c2410422b8cb59407cdf1bac9 KEY: f7333e038f747e9fafe58860518658123fca1c9a77d3a052b3eabed824b5b2cb DONE: 1 CT: 2faf8f2b2fb96add79b7d9dddea7a2b1
# KERNEL: #############PASS#############
# KERNEL: ---------------------------
# KERNEL: [SCO | 3470] : VALID: 0 PT: 6fc1951c2410422b8cb59407cdf1bac9 KEY: f7333e038f747e9fafe58860518658123fca1c9a77d3a052b3eabed824b5b2cb DONE: 1 CT: 2faf8f2b2fb96add79b7d9dddea7a2b1
# KERNEL: ---------------------------
# KERNEL: [GEN | 3490] : VALID: 0 PT: 974ad732713e4aa64ffaec4b790399dd KEY: b904ee4767b9d5da77442bcfe7fcb352de2d8b03651c6ed13b847ce282bc57c6 DONE: 0 CT: 00000000000000000000000000000000
# KERNEL: ---------------------------
# KERNEL: [DRI | 3490] : VALID: 0 PT: 974ad732713e4aa64ffaec4b790399dd KEY: b904ee4767b9d5da77442bcfe7fcb352de2d8b03651c6ed13b847ce282bc57c6 DONE: 0 CT: 00000000000000000000000000000000
# KERNEL: ---------------------------
# KERNEL: [GEN | 4610] : VALID: 1 PT: 917374d12dcd29fc096967d447a91743 KEY: 6d1f51ce7051f9b24b4618e24d59ad3bb9d171dc4b0d887b1f41b9e5ffd41ba0 DONE: 0 CT: 00000000000000000000000000000000
# KERNEL: ---------------------------
# KERNEL: [DRI | 4610] : VALID: 1 PT: 917374d12dcd29fc096967d447a91743 KEY: 6d1f51ce7051f9b24b4618e24d59ad3bb9d171dc4b0d887b1f41b9e5ffd41ba0 DONE: 0 CT: 00000000000000000000000000000000
# KERNEL: ---------------------------
# KERNEL: [MON | 4610] : VALID: 0 PT: 974ad732713e4aa64ffaec4b790399dd KEY: b904ee4767b9d5da77442bcfe7fcb352de2d8b03651c6ed13b847ce282bc57c6 DONE: 1 CT: 90df1b622a1a3a7d9434e13875bc1adc
# KERNEL: #############PASS#############
# KERNEL: ---------------------------
# KERNEL: [SCO | 4610] : VALID: 0 PT: 974ad732713e4aa64ffaec4b790399dd KEY: b904ee4767b9d5da77442bcfe7fcb352de2d8b03651c6ed13b847ce282bc57c6 DONE: 1 CT: 90df1b622a1a3a7d9434e13875bc1adc
# KERNEL: ---------------------------
# KERNEL: [GEN | 4630] : VALID: 0 PT: 917374d12dcd29fc096967d447a91743 KEY: 6d1f51ce7051f9b24b4618e24d59ad3bb9d171dc4b0d887b1f41b9e5ffd41ba0 DONE: 0 CT: 00000000000000000000000000000000
# KERNEL: ---------------------------
# KERNEL: [DRI | 4630] : VALID: 0 PT: 917374d12dcd29fc096967d447a91743 KEY: 6d1f51ce7051f9b24b4618e24d59ad3bb9d171dc4b0d887b1f41b9e5ffd41ba0 DONE: 0 CT: 00000000000000000000000000000000
# KERNEL: ---------------------------
# KERNEL: [MON | 5750] : VALID: 0 PT: 917374d12dcd29fc096967d447a91743 KEY: 6d1f51ce7051f9b24b4618e24d59ad3bb9d171dc4b0d887b1f41b9e5ffd41ba0 DONE: 1 CT: 06e8eb62c25fe8abcfed75d4347a7d3f
# KERNEL: #############PASS#############
# KERNEL: ---------------------------
# KERNEL: [SCO | 5750] : VALID: 0 PT: 917374d12dcd29fc096967d447a91743 KEY: 6d1f51ce7051f9b24b4618e24d59ad3bb9d171dc4b0d887b1f41b9e5ffd41ba0 DONE: 1 CT: 06e8eb62c25fe8abcfed75d4347a7d3f
# KERNEL: Info: design_tb.sv (26): WAIT DONE 5750
# RUNTIME: Info: RUNTIME_0068 design_tb.sv (28): $finish called.
# KERNEL: Time: 5770 ps,  Iteration: 1,  Instance: /testbench,  Process: @INITIAL#20_0@.
# KERNEL: stopped at time: 5770 ps
# VSIM: Simulation has finished. There are no more test vectors to simulate.
# VSIM: Simulation has finished.
